\relax 
\@writefile{toc}{\contentsline {section}{\numberline {1}}{1}\protected@file@percent }
\@writefile{toc}{\contentsline {section}{\numberline {2}}{1}\protected@file@percent }
\@writefile{toc}{\contentsline {section}{\numberline {3}}{2}\protected@file@percent }
\@writefile{toc}{\contentsline {section}{\numberline {4}}{2}\protected@file@percent }
\@writefile{toc}{\contentsline {section}{\numberline {5}}{3}\protected@file@percent }
\@writefile{toc}{\contentsline {section}{\numberline {6}}{4}\protected@file@percent }
\@writefile{toc}{\contentsline {section}{\numberline {7}}{4}\protected@file@percent }
\@writefile{toc}{\contentsline {subsection}{\numberline {7a.}}{4}\protected@file@percent }
\@writefile{toc}{\contentsline {subsection}{\numberline {7b.}}{4}\protected@file@percent }
\@writefile{toc}{\contentsline {subsection}{\numberline {7c.}}{5}\protected@file@percent }
\@writefile{toc}{\contentsline {subsection}{\numberline {7d.}}{5}\protected@file@percent }
\@writefile{toc}{\contentsline {section}{\numberline {8}}{6}\protected@file@percent }
\@writefile{toc}{\contentsline {section}{\numberline {9}}{6}\protected@file@percent }
\@writefile{toc}{\contentsline {section}{\numberline {10}}{7}\protected@file@percent }
