\relax 
\@writefile{toc}{\contentsline {section}{\numberline {1}}{1}\protected@file@percent }
\@writefile{toc}{\contentsline {subsection}{\numberline {1a.}}{1}\protected@file@percent }
\newlabel{psd}{{1a.}{1}}
\@writefile{toc}{\contentsline {subsection}{\numberline {1b.}}{1}\protected@file@percent }
\@writefile{toc}{\contentsline {section}{\numberline {2}}{1}\protected@file@percent }
\@writefile{toc}{\contentsline {section}{\numberline {3}}{2}\protected@file@percent }
\@writefile{toc}{\contentsline {subsection}{\numberline {3a.}}{2}\protected@file@percent }
\@writefile{toc}{\contentsline {subsection}{\numberline {3b.}}{2}\protected@file@percent }
\@writefile{toc}{\contentsline {subsection}{\numberline {3c.}}{2}\protected@file@percent }
\@writefile{toc}{\contentsline {subsection}{\numberline {3d.}}{2}\protected@file@percent }
\@writefile{toc}{\contentsline {subsection}{\numberline {3e.}}{3}\protected@file@percent }
\@writefile{toc}{\contentsline {subsection}{\numberline {3f.}}{3}\protected@file@percent }
\@writefile{toc}{\contentsline {section}{\numberline {4}}{3}\protected@file@percent }
\@writefile{toc}{\contentsline {subsection}{\numberline {4a.}}{4}\protected@file@percent }
\@writefile{toc}{\contentsline {subsection}{\numberline {4b.}}{4}\protected@file@percent }
\@writefile{toc}{\contentsline {subsection}{\numberline {4c.}}{4}\protected@file@percent }
\@writefile{toc}{\contentsline {subsection}{\numberline {4d.}}{4}\protected@file@percent }
\@writefile{toc}{\contentsline {subsection}{\numberline {4e.}}{5}\protected@file@percent }
\@writefile{lol}{\contentsline {lstlisting}{voter\textunderscore mosesyhc.py}{6}\protected@file@percent }
\@writefile{lol}{\contentsline {lstlisting}{min\textunderscore algorithm.py}{8}\protected@file@percent }
