\relax 
\@writefile{toc}{\contentsline {section}{\numberline {1}}{1}\protected@file@percent }
\@writefile{toc}{\contentsline {subsection}{\numberline {1a.}}{1}\protected@file@percent }
\@writefile{toc}{\contentsline {subsection}{\numberline {1b.}}{1}\protected@file@percent }
\@writefile{toc}{\contentsline {subsection}{\numberline {1c.}}{1}\protected@file@percent }
\@writefile{toc}{\contentsline {subsection}{\numberline {1d.}}{2}\protected@file@percent }
\@writefile{toc}{\contentsline {subsection}{\numberline {1e.}}{2}\protected@file@percent }
\@writefile{lof}{\contentsline {figure}{\numberline {1}{\ignorespaces Running means and variances of Metropolis-Hastings samples, $\Delta \rho = 0.1, 0.4.$}}{2}\protected@file@percent }
\newlabel{mh_plot}{{1}{2}}
\@writefile{toc}{\contentsline {section}{\numberline {2}}{2}\protected@file@percent }
\@writefile{toc}{\contentsline {subsection}{\numberline {2a.}}{2}\protected@file@percent }
\@writefile{toc}{\contentsline {subsection}{\numberline {2b.}}{3}\protected@file@percent }
\@writefile{toc}{\contentsline {section}{\numberline {3}}{3}\protected@file@percent }
\@writefile{toc}{\contentsline {subsection}{\numberline {3a.}}{3}\protected@file@percent }
\@writefile{toc}{\contentsline {subsection}{\numberline {3b.}}{3}\protected@file@percent }
\@writefile{toc}{\contentsline {subsection}{\numberline {3c.}}{3}\protected@file@percent }
\@writefile{toc}{\contentsline {subsection}{\numberline {3d.}}{3}\protected@file@percent }
\@writefile{lof}{\contentsline {figure}{\numberline {2}{\ignorespaces Visualization of correlation matrix of $x$, with dimension = 5.}}{4}\protected@file@percent }
\newlabel{ising_corr}{{2}{4}}
\@writefile{toc}{\contentsline {subsection}{\numberline {3e.}}{4}\protected@file@percent }
\@writefile{toc}{\contentsline {section}{\numberline {4}}{4}\protected@file@percent }
\@writefile{toc}{\contentsline {subsection}{\numberline {4a.}}{4}\protected@file@percent }
\@writefile{toc}{\contentsline {subsection}{\numberline {4b.}}{5}\protected@file@percent }
\@writefile{lof}{\contentsline {figure}{\numberline {3}{\ignorespaces Observations for $u$ (top) and $w$ (bottom), at intervals of $T=0.2$, for $20$ steps}}{5}\protected@file@percent }
\newlabel{pendulum_y}{{3}{5}}
\@writefile{toc}{\contentsline {subsection}{\numberline {4c.}}{5}\protected@file@percent }
\@writefile{toc}{\contentsline {subsection}{\numberline {4d.}}{5}\protected@file@percent }
\@writefile{lof}{\contentsline {figure}{\numberline {4}{\ignorespaces Mean error in estimation using $y_u$ (blue) and $y_w$ (red) using particle filter. Dashed lines are the 5\% and 95\% quantiles}}{6}\protected@file@percent }
\newlabel{mse}{{4}{6}}
\@writefile{toc}{\contentsline {subsection}{\numberline {4e.}}{6}\protected@file@percent }
\@writefile{toc}{\contentsline {subsection}{\numberline {4f.}}{6}\protected@file@percent }
\@writefile{lof}{\contentsline {figure}{\numberline {5}{\ignorespaces Effective sample size after each iteration, number of particles = 5, 20, 50, 100.}}{7}\protected@file@percent }
\newlabel{ess}{{5}{7}}
\@writefile{lol}{\contentsline {lstlisting}{mh\textunderscore hw3.py}{7}\protected@file@percent }
\@writefile{lol}{\contentsline {lstlisting}{ising\textunderscore hw3.py}{8}\protected@file@percent }
\@writefile{lol}{\contentsline {lstlisting}{pendulum\textunderscore hw3.py}{10}\protected@file@percent }
